{
	"info": {
		"_postman_id": "afd74403-8438-429a-b56e-75a2598035ae",
		"name": "ARDA",
		"schema": "https://schema.getpostman.com/json/collection/v2.1.0/collection.json",
		"_exporter_id": "14300782"
	},
	"item": [
		{
			"name": "Status",
			"event": [
				{
					"listen": "test",
					"script": {
						"exec": [
							"pm.test(\"Status code is 200\", function () {\r",
							"    pm.response.to.have.status(200)\r",
							"})"
						],
						"type": "text/javascript"
					}
				}
			],
			"request": {
				"method": "GET",
				"header": [],
				"url": {
					"raw": "{{URL_APP}}/api/cities",
					"host": [
						"{{URL_APP}}"
					],
					"path": [
						"api",
						"cities"
					]
				}
			},
			"response": []
		},
		{
			"name": "Cities",
			"event": [
				{
					"listen": "test",
					"script": {
						"exec": [
							"pm.test(\"Body contains message\", function () {\r",
							"    pm.expect(pm.response.text()).to.include(\"Paris\")\r",
							"})"
						],
						"type": "text/javascript"
					}
				}
			],
			"request": {
				"method": "GET",
				"header": [],
				"url": {
					"raw": "{{URL_APP}}/api/cities",
					"host": [
						"{{URL_APP}}"
					],
					"path": [
						"api",
						"cities"
					]
				}
			},
			"response": []
		},
		{
			"name": "City - Bordeaux",
			"event": [
				{
					"listen": "test",
					"script": {
						"exec": [
							"pm.test(\"Body contains message\", function () {\r",
							"    pm.expect(pm.response.text()).to.include(\"Bordeaux\")\r",
							"})"
						],
						"type": "text/javascript"
					}
				}
			],
			"request": {
				"method": "GET",
				"header": [],
				"url": {
					"raw": "{{URL_APP}}/api/cities/1",
					"host": [
						"{{URL_APP}}"
					],
					"path": [
						"api",
						"cities",
						"1"
					]
				}
			},
			"response": []
		},
		{
			"name": "City - Paris",
			"event": [
				{
					"listen": "test",
					"script": {
						"exec": [
							"pm.test(\"Body contains message\", function () {\r",
							"    pm.expect(pm.response.text()).to.include(\"Paris\")\r",
							"})"
						],
						"type": "text/javascript"
					}
				}
			],
			"request": {
				"method": "GET",
				"header": [],
				"url": {
					"raw": "{{URL_APP}}/api/cities/0",
					"host": [
						"{{URL_APP}}"
					],
					"path": [
						"api",
						"cities",
						"0"
					]
				}
			},
			"response": []
		},
		{
			"name": "404",
			"event": [
				{
					"listen": "test",
					"script": {
						"exec": [
							"pm.test(\"Status code is 404\", function () {\r",
							"    pm.response.to.have.status(404)\r",
							"})"
						],
						"type": "text/javascript"
					}
				}
			],
			"request": {
				"method": "GET",
				"header": [],
				"url": {
					"raw": "{{URL_APP}}/hello-world",
					"host": [
						"{{URL_APP}}"
					],
					"path": [
						"hello-world"
					]
				}
			},
			"response": []
		}
	]
}